<?xml version="1.0" encoding="UTF-8" standalone="no"?>
<svg width="168px" height="98px" viewBox="0 0 168 98" version="1.1" xmlns="http://www.w3.org/2000/svg" xmlns:xlink="http://www.w3.org/1999/xlink">
    <!-- Generator: Sketch 3.6.1 (26313) - http://www.bohemiancoding.com/sketch -->
    <title>logo</title>
    <desc>Created with Sketch.</desc>
    <defs>
        <path id="path-1" d="M15.732,75.279 L0,75.279 L25.375,0 L41.107,0 L15.732,75.279 Z"></path>
        <linearGradient x1="40.9465456%" y1="80.3207433%" x2="60.4949237%" y2="14.9934998%" id="linearGradient-3">
            <stop stop-color="#00B9C6" offset="0%"></stop>
            <stop stop-color="#262261" offset="100%"></stop>
        </linearGradient>
        <path id="path-4" d="M16.221,75.279 L0.489,75.279 L25.864,0 L41.596,0 L16.221,75.279 Z"></path>
        <linearGradient x1="60.8910117%" y1="17.6271507%" x2="42.7388994%" y2="71.1636736%" id="linearGradient-6">
            <stop stop-color="#732A4A" offset="0%"></stop>
            <stop stop-color="#B3121E" offset="100%"></stop>
        </linearGradient>
        <path id="path-7" d="M16.485,75.279 L0.753,75.279 L26.128,0 L41.859,0 L16.485,75.279 Z"></path>
        <linearGradient x1="59.0643113%" y1="19.1205928%" x2="34.5883393%" y2="100.211694%" id="linearGradient-9">
            <stop stop-color="#7E8D67" offset="0%"></stop>
            <stop stop-color="#534F00" offset="100%"></stop>
        </linearGradient>
        <path id="path-10" d="M25.765,75.279 L41.497,75.279 L16.122,0 L0.39,0 L25.765,75.279 Z"></path>
        <linearGradient x1="32.6128454%" y1="-0.718146215%" x2="68.0186155%" y2="102.440745%" id="linearGradient-12">
            <stop stop-color="#467FA1" offset="0%"></stop>
            <stop stop-color="#50829E" offset="46.43%"></stop>
            <stop stop-color="#FFF200" offset="100%"></stop>
        </linearGradient>
        <path id="path-13" d="M26.268,75.279 L42,75.279 L16.625,0 L0.893,0 L26.268,75.279 Z"></path>
        <linearGradient x1="44.2798893%" y1="34.0187251%" x2="58.4973799%" y2="73.5319848%" id="linearGradient-15">
            <stop stop-color="#F06A9E" offset="0%"></stop>
            <stop stop-color="#1EA9E1" offset="100%"></stop>
        </linearGradient>
        <path id="path-16" d="M25.495,75.279 L41.228,75.279 L15.853,0 L0.12,0 L25.495,75.279 Z"></path>
        <linearGradient x1="32.4651479%" y1="-0.527958447%" x2="58.3854085%" y2="73.2081631%" id="linearGradient-18">
            <stop stop-color="#CFE4A5" offset="0%"></stop>
            <stop stop-color="#ED1E2D" offset="100%"></stop>
        </linearGradient>
    </defs>
    <g id="Page-1" stroke="none" stroke-width="1" fill="none" fill-rule="evenodd">
        <g id="Главная-v2" transform="translate(-265.000000, -15.000000)">
            <g id="header" transform="translate(0.000000, -12.000000)">
                <g id="logo" transform="translate(265.000000, 27.000000)">
                    <g id="Clipped">
                        <mask id="mask-2" fill="white">
                            <use xlink:href="#path-1"></use>
                        </mask>
                        <g id="SVGID_1_"></g>
                        <path d="M-17.066,71.188 L2.234,-9.319 L58.173,4.091 L38.873,84.598 L-17.066,71.188 Z" id="Shape" fill="url(#linearGradient-3)" mask="url(#mask-2)"></path>
                    </g>
                    <g id="Clipped" transform="translate(101.000000, 0.000000)">
                        <mask id="mask-5" fill="white">
                            <use xlink:href="#path-4"></use>
                        </mask>
                        <g id="SVGID_4_"></g>
                        <path d="M61.252,5.54 L38.571,86.012 L-19.167,69.74 L3.514,-10.733 L61.252,5.54 Z" id="Shape" fill="url(#linearGradient-6)" mask="url(#mask-5)"></path>
                    </g>
                    <g id="Clipped" transform="translate(50.000000, 0.000000)">
                        <mask id="mask-8" fill="white">
                            <use xlink:href="#path-7"></use>
                        </mask>
                        <g id="SVGID_7_"></g>
                        <path d="M59.097,4.178 L39.578,84.691 L-16.484,71.101 L3.035,-9.412 L59.097,4.178 Z" id="Shape" fill="url(#linearGradient-9)" mask="url(#mask-8)"></path>
                    </g>
                    <g id="Clipped" transform="translate(25.000000, 0.000000)">
                        <mask id="mask-11" fill="white">
                            <use xlink:href="#path-10"></use>
                        </mask>
                        <g id="SVGID_10_"></g>
                        <path d="M38.382,-10.878 L61.417,69.576 L3.504,86.157 L-19.531,5.704 L38.382,-10.878 Z" id="Shape" fill="url(#linearGradient-12)" mask="url(#mask-11)"></path>
                    </g>
                    <g id="Clipped" transform="translate(126.000000, 0.000000)">
                        <mask id="mask-14" fill="white">
                            <use xlink:href="#path-13"></use>
                        </mask>
                        <g id="SVGID_13_"></g>
                        <path d="M38.515,-11.45 L62.969,68.898 L4.378,86.73 L-20.076,6.381 L38.515,-11.45 Z" id="Shape" fill="url(#linearGradient-15)" mask="url(#mask-14)"></path>
                    </g>
                    <g id="Clipped" transform="translate(76.000000, 0.000000)">
                        <mask id="mask-17" fill="white">
                            <use xlink:href="#path-16"></use>
                        </mask>
                        <g id="SVGID_16_"></g>
                        <path d="M37.93,-11.166 L61.676,69.241 L3.418,86.445 L-20.328,6.039 L37.93,-11.166 Z" id="Shape" fill="url(#linearGradient-18)" mask="url(#mask-17)"></path>
                    </g>
                    <g id="Group" transform="translate(31.000000, 83.000000)" fill="#808285">
                        <path d="M14.117,11.487 C14.117,11.548 14.1,11.601 14.068,11.65 C14.035,11.698 13.974,11.737 13.887,11.767 C13.8,11.797 13.684,11.821 13.539,11.839 C13.395,11.857 13.211,11.865 12.989,11.865 C12.772,11.865 12.592,11.856 12.447,11.839 C12.302,11.82 12.188,11.797 12.104,11.767 C12.02,11.737 11.96,11.698 11.924,11.65 C11.888,11.601 11.87,11.547 11.87,11.487 L11.87,1.984 L11.852,1.984 L8.468,11.478 C8.444,11.556 8.405,11.621 8.35,11.672 C8.296,11.723 8.222,11.764 8.129,11.794 C8.036,11.823 7.917,11.843 7.773,11.853 C7.629,11.862 7.454,11.866 7.25,11.866 C7.046,11.866 6.871,11.859 6.727,11.844 C6.583,11.829 6.464,11.805 6.371,11.772 C6.278,11.74 6.204,11.699 6.15,11.651 C6.096,11.602 6.06,11.546 6.042,11.479 L2.775,1.985 L2.757,1.985 L2.757,11.488 C2.757,11.549 2.74,11.602 2.707,11.651 C2.674,11.699 2.612,11.738 2.522,11.768 C2.432,11.798 2.316,11.822 2.174,11.84 C2.033,11.858 1.851,11.866 1.628,11.866 C1.412,11.866 1.231,11.857 1.086,11.84 C0.941,11.821 0.826,11.798 0.738,11.768 C0.651,11.738 0.591,11.699 0.558,11.651 C0.525,11.602 0.508,11.548 0.508,11.488 L0.508,1.082 C0.508,0.774 0.59,0.54 0.752,0.378 C0.915,0.215 1.131,0.134 1.402,0.134 L2.954,0.134 C3.231,0.134 3.469,0.156 3.667,0.202 C3.866,0.247 4.037,0.322 4.182,0.428 C4.327,0.532 4.447,0.671 4.543,0.843 C4.639,1.014 4.724,1.226 4.796,1.479 L7.323,8.438 L7.359,8.438 L9.976,1.498 C10.054,1.245 10.14,1.031 10.233,0.857 C10.326,0.682 10.435,0.541 10.558,0.432 C10.681,0.324 10.827,0.247 10.996,0.203 C11.164,0.157 11.36,0.135 11.582,0.135 L13.18,0.135 C13.343,0.135 13.482,0.156 13.599,0.198 C13.717,0.24 13.813,0.302 13.888,0.383 C13.963,0.465 14.02,0.564 14.059,0.681 C14.098,0.798 14.118,0.933 14.118,1.083 L14.118,11.487 L14.117,11.487 Z" id="Shape"></path>
                        <path d="M23.584,10.882 C23.584,11.057 23.576,11.202 23.562,11.32 C23.547,11.437 23.524,11.533 23.494,11.604 C23.464,11.676 23.427,11.729 23.381,11.762 C23.336,11.795 23.286,11.812 23.232,11.812 L17.366,11.812 C17.167,11.812 17,11.753 16.865,11.636 C16.73,11.519 16.662,11.327 16.662,11.063 L16.662,0.882 C16.662,0.617 16.73,0.427 16.865,0.309 C17,0.192 17.167,0.133 17.366,0.133 L23.196,0.133 C23.25,0.133 23.299,0.149 23.341,0.178 C23.383,0.208 23.419,0.261 23.449,0.336 C23.479,0.411 23.501,0.508 23.516,0.625 C23.531,0.742 23.539,0.892 23.539,1.071 C23.539,1.24 23.531,1.383 23.516,1.5 C23.501,1.617 23.478,1.713 23.449,1.784 C23.419,1.856 23.383,1.909 23.341,1.942 C23.299,1.975 23.251,1.992 23.196,1.992 L19.027,1.992 L19.027,4.844 L22.556,4.844 C22.61,4.844 22.66,4.861 22.705,4.894 C22.75,4.927 22.788,4.979 22.818,5.047 C22.848,5.116 22.871,5.21 22.886,5.327 C22.901,5.444 22.908,5.587 22.908,5.756 C22.908,5.931 22.9,6.074 22.886,6.189 C22.871,6.304 22.848,6.396 22.818,6.464 C22.788,6.533 22.75,6.583 22.705,6.613 C22.66,6.643 22.61,6.658 22.556,6.658 L19.027,6.658 L19.027,9.952 L23.233,9.952 C23.287,9.952 23.337,9.969 23.382,10.002 C23.427,10.035 23.465,10.088 23.495,10.16 C23.525,10.232 23.548,10.327 23.563,10.444 C23.576,10.562 23.584,10.708 23.584,10.882 L23.584,10.882 Z" id="Shape"></path>
                        <path d="M36.371,14.565 C36.371,14.625 36.356,14.676 36.326,14.718 C36.296,14.76 36.242,14.794 36.163,14.822 C36.084,14.85 35.979,14.87 35.847,14.885 C35.715,14.9 35.543,14.907 35.332,14.907 C35.127,14.907 34.96,14.899 34.832,14.885 C34.702,14.869 34.597,14.849 34.516,14.822 C34.434,14.795 34.377,14.76 34.344,14.718 C34.311,14.676 34.295,14.624 34.295,14.565 L34.295,11.812 L26.524,11.812 L26.524,14.565 C26.524,14.625 26.507,14.676 26.475,14.718 C26.442,14.76 26.385,14.794 26.304,14.822 C26.222,14.849 26.116,14.87 25.983,14.885 C25.851,14.9 25.682,14.907 25.478,14.907 C25.274,14.907 25.105,14.899 24.973,14.885 C24.841,14.869 24.734,14.849 24.653,14.822 C24.572,14.795 24.516,14.76 24.486,14.718 C24.456,14.676 24.441,14.624 24.441,14.565 L24.441,10.368 C24.429,10.194 24.461,10.069 24.536,9.994 C24.611,9.919 24.724,9.881 24.874,9.881 L25.416,9.881 C25.561,9.677 25.697,9.466 25.827,9.249 C25.956,9.033 26.081,8.775 26.202,8.478 C26.322,8.18 26.441,7.826 26.558,7.414 C26.675,7.002 26.791,6.498 26.906,5.902 C27.021,5.306 27.136,4.6 27.253,3.785 C27.371,2.971 27.492,2.012 27.619,0.911 C27.655,0.64 27.724,0.443 27.827,0.32 C27.929,0.196 28.086,0.134 28.296,0.134 L34.262,0.134 C34.472,0.134 34.638,0.196 34.758,0.32 C34.879,0.443 34.939,0.631 34.939,0.883 L34.939,9.881 L35.932,9.881 C36.095,9.881 36.209,9.925 36.275,10.012 C36.341,10.1 36.374,10.221 36.374,10.378 L36.374,14.565 L36.371,14.565 Z M32.571,2.046 L29.845,2.046 C29.737,2.961 29.63,3.766 29.525,4.461 C29.42,5.155 29.315,5.765 29.209,6.288 C29.104,6.811 28.997,7.263 28.889,7.642 C28.781,8.021 28.671,8.349 28.56,8.626 C28.448,8.902 28.332,9.14 28.212,9.339 C28.091,9.537 27.968,9.718 27.842,9.88 L32.571,9.88 L32.571,2.046 L32.571,2.046 Z" id="Shape"></path>
                        <path d="M47.544,11.505 C47.544,11.565 47.524,11.617 47.485,11.663 C47.446,11.708 47.381,11.745 47.291,11.775 C47.201,11.805 47.079,11.828 46.925,11.842 C46.772,11.858 46.581,11.864 46.352,11.864 C46.123,11.864 45.933,11.857 45.779,11.842 C45.626,11.827 45.505,11.805 45.418,11.775 C45.331,11.745 45.269,11.708 45.233,11.663 C45.197,11.617 45.179,11.564 45.179,11.505 L45.179,5.35 C45.179,5.116 45.182,4.885 45.188,4.66 C45.194,4.435 45.203,4.234 45.215,4.059 L45.197,4.059 C45.149,4.144 45.092,4.242 45.025,4.353 C44.959,4.464 44.888,4.582 44.813,4.705 C44.738,4.828 44.658,4.955 44.574,5.084 C44.49,5.214 44.406,5.339 44.322,5.459 L40.26,11.515 C40.212,11.581 40.162,11.638 40.111,11.687 C40.06,11.735 39.994,11.772 39.912,11.799 C39.831,11.826 39.732,11.844 39.615,11.854 C39.497,11.863 39.345,11.867 39.159,11.867 C38.925,11.867 38.735,11.86 38.591,11.845 C38.446,11.83 38.334,11.808 38.253,11.778 C38.171,11.748 38.116,11.709 38.086,11.661 C38.056,11.613 38.041,11.556 38.041,11.489 L38.041,0.44 C38.041,0.38 38.061,0.328 38.1,0.283 C38.139,0.237 38.205,0.2 38.299,0.17 C38.393,0.14 38.514,0.117 38.665,0.103 C38.815,0.088 39.005,0.081 39.233,0.081 C39.468,0.081 39.66,0.089 39.811,0.103 C39.962,0.117 40.082,0.14 40.172,0.17 C40.262,0.2 40.325,0.237 40.361,0.283 C40.397,0.328 40.415,0.381 40.415,0.44 L40.415,6.631 C40.415,6.824 40.412,7.028 40.406,7.245 C40.4,7.461 40.391,7.672 40.379,7.877 L40.397,7.877 C40.5,7.696 40.629,7.48 40.785,7.227 C40.941,6.974 41.104,6.728 41.272,6.487 L45.334,0.431 C45.376,0.371 45.421,0.319 45.469,0.273 C45.517,0.228 45.582,0.191 45.663,0.161 C45.745,0.131 45.845,0.11 45.966,0.098 C46.086,0.086 46.239,0.08 46.426,0.08 C46.655,0.08 46.84,0.088 46.981,0.102 C47.122,0.117 47.235,0.139 47.319,0.169 C47.403,0.199 47.462,0.236 47.495,0.282 C47.528,0.327 47.544,0.383 47.544,0.449 L47.544,11.505 L47.544,11.505 Z" id="Shape"></path>
                        <path d="M59.656,10.927 C59.728,11.144 59.773,11.316 59.791,11.442 C59.809,11.568 59.785,11.664 59.719,11.726 C59.653,11.789 59.535,11.829 59.367,11.843 C59.199,11.859 58.967,11.865 58.672,11.865 C58.365,11.865 58.127,11.861 57.955,11.852 C57.783,11.842 57.652,11.825 57.562,11.797 C57.472,11.769 57.408,11.733 57.373,11.685 C57.336,11.636 57.307,11.574 57.283,11.496 L56.498,9.149 L52.111,9.149 L51.371,11.432 C51.347,11.516 51.315,11.587 51.276,11.644 C51.236,11.702 51.173,11.747 51.087,11.78 C51,11.812 50.876,11.836 50.717,11.847 C50.557,11.859 50.348,11.865 50.09,11.865 C49.813,11.865 49.597,11.856 49.44,11.839 C49.284,11.82 49.175,11.777 49.115,11.708 C49.055,11.639 49.034,11.541 49.052,11.414 C49.07,11.288 49.115,11.12 49.187,10.909 L52.788,0.548 C52.824,0.446 52.866,0.363 52.914,0.3 C52.962,0.237 53.039,0.189 53.144,0.155 C53.249,0.123 53.394,0.101 53.582,0.093 C53.768,0.083 54.016,0.079 54.322,0.079 C54.677,0.079 54.959,0.083 55.17,0.093 C55.381,0.102 55.545,0.123 55.662,0.155 C55.779,0.188 55.863,0.238 55.916,0.304 C55.967,0.37 56.01,0.46 56.047,0.575 L59.656,10.927 L59.656,10.927 Z M54.295,2.363 L54.285,2.363 L52.635,7.327 L55.947,7.327 L54.295,2.363 L54.295,2.363 Z" id="Shape"></path>
                        <path d="M74.537,11.505 C74.537,11.565 74.519,11.617 74.484,11.663 C74.447,11.708 74.384,11.745 74.293,11.775 C74.203,11.805 74.082,11.828 73.928,11.842 C73.776,11.858 73.584,11.864 73.356,11.864 C73.122,11.864 72.928,11.857 72.778,11.842 C72.628,11.827 72.508,11.805 72.417,11.775 C72.327,11.745 72.265,11.708 72.228,11.663 C72.193,11.617 72.175,11.564 72.175,11.505 L72.175,2.082 L69.665,2.082 C69.497,3.46 69.325,4.664 69.151,5.692 C68.975,6.721 68.79,7.602 68.59,8.337 C68.39,9.072 68.174,9.673 67.936,10.142 C67.698,10.612 67.428,10.983 67.124,11.257 C66.821,11.53 66.478,11.719 66.095,11.82 C65.714,11.923 65.279,11.973 64.792,11.973 C64.702,11.973 64.622,11.961 64.558,11.937 C64.492,11.914 64.439,11.868 64.4,11.802 C64.361,11.736 64.332,11.643 64.314,11.522 C64.296,11.402 64.287,11.249 64.287,11.062 C64.287,10.803 64.293,10.594 64.305,10.435 C64.317,10.275 64.338,10.152 64.369,10.065 C64.398,9.977 64.437,9.919 64.486,9.889 C64.533,9.859 64.59,9.843 64.656,9.843 C64.844,9.843 65.023,9.806 65.193,9.731 C65.365,9.656 65.531,9.506 65.691,9.284 C65.849,9.061 66.003,8.749 66.15,8.346 C66.298,7.943 66.443,7.412 66.584,6.753 C66.725,6.094 66.867,5.291 67.008,4.343 C67.149,3.396 67.293,2.269 67.438,0.963 C67.473,0.656 67.545,0.442 67.655,0.318 C67.762,0.194 67.923,0.132 68.132,0.132 L73.864,0.132 C74.081,0.132 74.247,0.194 74.364,0.318 C74.481,0.441 74.54,0.629 74.54,0.881 L74.54,11.505 L74.537,11.505 Z" id="Shape"></path>
                        <path d="M95.223,11.487 C95.223,11.548 95.203,11.601 95.164,11.65 C95.125,11.698 95.06,11.737 94.971,11.767 C94.882,11.797 94.76,11.821 94.61,11.839 C94.46,11.857 94.27,11.865 94.042,11.865 C93.808,11.865 93.614,11.856 93.46,11.839 C93.306,11.82 93.187,11.797 93.099,11.767 C93.011,11.737 92.949,11.698 92.91,11.65 C92.871,11.601 92.851,11.547 92.851,11.487 L92.851,6.767 L88.484,6.767 L88.484,11.487 C88.484,11.548 88.464,11.601 88.429,11.65 C88.392,11.698 88.329,11.737 88.24,11.767 C88.151,11.797 88.029,11.821 87.879,11.839 C87.729,11.857 87.535,11.865 87.301,11.865 C87.072,11.865 86.881,11.856 86.729,11.839 C86.575,11.82 86.454,11.797 86.364,11.767 C86.272,11.737 86.208,11.698 86.169,11.65 C86.13,11.601 86.11,11.547 86.11,11.487 L86.11,0.458 C86.11,0.397 86.13,0.344 86.169,0.296 C86.208,0.247 86.273,0.208 86.364,0.178 C86.454,0.149 86.575,0.124 86.729,0.106 C86.881,0.088 87.073,0.08 87.301,0.08 C87.535,0.08 87.729,0.089 87.879,0.106 C88.029,0.125 88.15,0.149 88.24,0.178 C88.33,0.208 88.392,0.247 88.429,0.296 C88.464,0.344 88.484,0.398 88.484,0.458 L88.484,4.745 L92.851,4.745 L92.851,0.458 C92.851,0.397 92.871,0.344 92.91,0.296 C92.949,0.247 93.012,0.208 93.099,0.178 C93.187,0.149 93.306,0.124 93.46,0.106 C93.614,0.088 93.808,0.08 94.042,0.08 C94.271,0.08 94.46,0.089 94.61,0.106 C94.76,0.125 94.881,0.149 94.971,0.178 C95.061,0.208 95.125,0.247 95.164,0.296 C95.203,0.344 95.223,0.398 95.223,0.458 L95.223,11.487 L95.223,11.487 Z" id="Shape"></path>
                        <path d="M108.535,14.565 C108.535,14.625 108.519,14.676 108.49,14.718 C108.459,14.76 108.406,14.794 108.328,14.822 C108.25,14.85 108.144,14.87 108.012,14.885 C107.879,14.9 107.707,14.907 107.498,14.907 C107.293,14.907 107.125,14.899 106.996,14.885 C106.867,14.869 106.762,14.849 106.68,14.822 C106.6,14.795 106.541,14.76 106.51,14.718 C106.477,14.676 106.459,14.624 106.459,14.565 L106.459,11.812 L98.689,11.812 L98.689,14.565 C98.689,14.625 98.671,14.676 98.638,14.718 C98.605,14.76 98.548,14.794 98.466,14.822 C98.386,14.849 98.278,14.87 98.146,14.885 C98.015,14.9 97.845,14.907 97.642,14.907 C97.437,14.907 97.269,14.899 97.136,14.885 C97.003,14.869 96.896,14.849 96.816,14.822 C96.734,14.795 96.679,14.76 96.648,14.718 C96.619,14.676 96.603,14.624 96.603,14.565 L96.603,10.368 C96.591,10.194 96.623,10.069 96.699,9.994 C96.773,9.919 96.887,9.881 97.037,9.881 L97.578,9.881 C97.723,9.677 97.859,9.466 97.99,9.249 C98.119,9.033 98.244,8.775 98.363,8.478 C98.484,8.18 98.603,7.826 98.72,7.414 C98.837,7.002 98.952,6.498 99.068,5.902 C99.181,5.306 99.298,4.6 99.416,3.785 C99.533,2.971 99.654,2.012 99.781,0.911 C99.816,0.64 99.886,0.443 99.988,0.32 C100.09,0.196 100.246,0.134 100.457,0.134 L106.424,0.134 C106.633,0.134 106.799,0.196 106.92,0.32 C107.039,0.443 107.1,0.631 107.1,0.883 L107.1,9.881 L108.094,9.881 C108.256,9.881 108.369,9.925 108.436,10.012 C108.502,10.1 108.536,10.221 108.536,10.378 L108.536,14.565 L108.535,14.565 Z M104.736,2.046 L102.009,2.046 C101.902,2.961 101.794,3.766 101.689,4.461 C101.584,5.155 101.478,5.765 101.373,6.288 C101.268,6.811 101.162,7.263 101.053,7.642 C100.946,8.021 100.836,8.349 100.725,8.626 C100.614,8.902 100.496,9.14 100.377,9.339 C100.256,9.537 100.133,9.718 100.006,9.88 L104.736,9.88 L104.736,2.046 L104.736,2.046 Z" id="Shape"></path>
                    </g>
                    <path d="M110.34492,90.0828877 L110.34492,88.0935829 L113.368984,88.0935829 C113.272727,87.1096207 113.016045,86.3516069 112.59893,85.8195187 C112.181816,85.2874305 111.655083,85.0213904 111.018717,85.0213904 C109.981278,85.0213904 109.291446,85.6737903 108.949198,86.9786096 L107.032086,86.4491979 C107.251338,85.3368928 107.704542,84.4839602 108.391711,83.8903743 C109.07888,83.2967885 109.93315,83 110.954545,83 C112.312841,83 113.397055,83.5521335 114.207219,84.6564171 C115.017384,85.7607007 115.42246,87.2566751 115.42246,89.144385 C115.42246,90.9679236 115.025405,92.4264651 114.231283,93.5200535 C113.437162,94.6136418 112.379686,95.1604278 111.058824,95.1604278 C108.860952,95.1604278 107.508024,93.9010821 107,91.3823529 L108.949198,90.6363636 C109.045455,91.4438543 109.287431,92.0628321 109.675134,92.4933155 C110.062836,92.9237989 110.545452,93.1390374 111.122995,93.1390374 C112.401076,93.1390374 113.149732,92.120331 113.368984,90.0828877 L110.34492,90.0828877 Z" id="Э" fill="#808285"></path>
                </g>
            </g>
        </g>
    </g>
</svg>