<?xml version="1.0" encoding="utf-8"?>
<!-- Generator: Adobe Illustrator 19.2.0, SVG Export Plug-In . SVG Version: 6.00 Build 0)  -->
<svg version="1.1" id="Layer_1" xmlns="http://www.w3.org/2000/svg" xmlns:xlink="http://www.w3.org/1999/xlink" x="0px" y="0px"
	 viewBox="0 0 512 512" style="enable-background:new 0 0 512 512;" xml:space="preserve">
<style type="text/css">
	.st0{fill:#B7DDF1;}
	.st1{fill:#4AAADC;}
	.st2{fill:#80C3E6;}
	.st3{fill:#253B4B;}
</style>
<g>
	<path class="st0" d="M426.3,312.3c13.9,8,12.5,44.6,7.6,49.4H256l0,0H78.1c-4.8-4.8-6.3-41.4,7.6-49.4
		c38.8-22.4,52.5-83.1,57.1-142.8C147.4,109.8,197.8,64,256,64s108.6,45.8,113.2,105.5C373.8,229.1,387.5,289.9,426.3,312.3z"/>
	<g>
		<path class="st1" d="M256,416c30,0,54.3-24.3,54.3-54.3H256h-54.3C201.7,391.7,226,416,256,416z"/>
		<path class="st1" d="M256,64c14.7,0,26.7-12,26.7-26.7s-12-26.7-26.7-26.7c-14.7,0-26.7,12-26.7,26.7S241.3,64,256,64z"/>
	</g>
</g>
<g>
	<path class="st2" d="M65.2,272.9c-4-4.3-10.7-4.6-15.1-0.7c-1.2,1.1-2.5,2.3-3.8,3.4c-4.4,3.9-4.9,10.6-1,15.1
		c2.1,2.4,5.1,3.6,8,3.6c2.5,0,5-0.9,7-2.7c1.4-1.3,2.8-2.5,4.2-3.7C68.9,284,69.2,277.2,65.2,272.9z"/>
	<path class="st2" d="M72.3,265.4c1.9,1.3,4,1.9,6.1,1.9c3.4,0,6.7-1.6,8.8-4.6c17.6-25.2,20.2-50.2,23.7-95.7
		c0.5-5.9-3.9-11-9.8-11.5s-11,3.9-11.5,9.8c-3.3,42.9-5.5,64.4-19.9,85.2C66.3,255.4,67.5,262.1,72.3,265.4z"/>
	<path class="st2" d="M398.3,147.8c1.1,5,5.5,8.4,10.4,8.4c0.7,0,1.5-0.1,2.2-0.2c5.8-1.2,9.4-6.9,8.2-12.7
		c-0.4-2.1-0.9-4.1-1.4-6.2c-1.5-5.7-7.3-9.2-13-7.7c-5.7,1.5-9.2,7.3-7.7,13C397.5,144.2,398,146,398.3,147.8z"/>
	<path class="st2" d="M465.5,275.5c-31.2-26-38.1-51.3-42.4-101.8c-0.5-5.9-5.7-10.2-11.5-9.7c-5.9,0.5-10.2,5.7-9.7,11.5
		c4.7,54.5,13.4,85.8,50,116.3c2,1.7,4.4,2.5,6.8,2.5c3.1,0,6.1-1.3,8.2-3.8C470.6,285.9,470,279.2,465.5,275.5z"/>
	<path class="st3" d="M441.9,314.2c-0.1-0.3-0.3-0.6-0.5-0.8c-2.6-4.6-5.9-8.1-9.8-10.4c-28.8-16.6-46.2-61.8-51.8-134.4
		c-4.1-53.8-42.5-97.9-92.4-111.2c3.7-5.8,5.9-12.7,5.9-20.1C293.3,16.8,276.6,0,256,0s-37.3,16.8-37.3,37.3
		c0,7.4,2.2,14.3,5.9,20.1c-49.9,13.3-88.3,57.4-92.4,111.2c-5.6,72.5-23,117.7-51.8,134.4c-8.3,4.8-13.8,15-15.7,29.5
		c-1.2,9.4-1.6,29.2,5.8,36.6c2,2,4.7,3.1,7.5,3.1h113.8c5.1,30.8,31.9,54.3,64.1,54.3s59-23.6,64.1-54.3h113.8
		c2.8,0,5.5-1.1,7.5-3.1c7.4-7.4,7.1-27.2,5.8-36.7C446.3,325.3,444.5,319.2,441.9,314.2z M256,21.3c8.8,0,16,7.2,16,16
		s-7.2,16-16,16c-8.8,0-16-7.2-16-16S247.2,21.3,256,21.3z M256,405.3c-20.4,0-37.6-14.1-42.3-33h84.7
		C293.6,391.3,276.4,405.3,256,405.3z M426.2,351H85.8c-0.4-3.5-0.7-8.5-0.1-14.2c1-9.5,3.8-14.4,5.3-15.3
		c35.7-20.6,56.2-70.1,62.4-151.2c4.1-53.6,49.2-95.6,102.6-95.6s98.5,42,102.6,95.6c3,39,9.3,70.7,19,95.4h-40.1
		c-5.9,0-10.7,4.8-10.7,10.7c0,5.9,4.8,10.7,10.7,10.7h50.3c4.8,8.2,10.2,15.4,16.2,21.3H297.6c-5.9,0-10.7,4.8-10.7,10.7
		c0,5.9,4.8,10.7,10.7,10.7h127.5c0.5,2,1,4.3,1.2,7.1C426.9,342.5,426.7,347.5,426.2,351z"/>
	<path class="st3" d="M362.7,490.7H149.4c-5.9,0-10.7,4.8-10.7,10.7c0,5.9,4.8,10.7,10.7,10.7h213.3c5.9,0,10.7-4.8,10.7-10.7
		C373.3,495.4,368.6,490.7,362.7,490.7z"/>
	<path class="st3" d="M259.2,308.3h-6.4c-5.9,0-10.7,4.8-10.7,10.7c0,5.9,4.8,10.7,10.7,10.7h6.4c5.9,0,10.7-4.8,10.7-10.7
		C269.9,313.1,265.1,308.3,259.2,308.3z"/>
</g>
</svg>
